<!-- Generator: Adobe Illustrator 24.3.0, SVG Export Plug-In  -->
<svg version="1.1" xmlns="http://www.w3.org/2000/svg" xmlns:xlink="http://www.w3.org/1999/xlink" x="0px" y="0px" width="17.46px"
	 height="17.48px" viewBox="0 0 17.46 17.48" style="overflow:visible;enable-background:new 0 0 17.46 17.48;"
	 xml:space="preserve">
<style type="text/css">
	.st0{fill:#F21947;}
</style>
<defs>
</defs>
<g>
	<g>
		<path class="st0" d="M14.93,1.5c0.57,0,1.03,0.46,1.03,1.03v10.21C13.74,11.08,9.87,9.6,3.15,9.53C2.25,9.52,1.5,8.76,1.5,7.86
			l0-4.36C1.5,2.4,2.4,1.5,3.51,1.5H14.93 M14.93,0H3.51C1.57,0,0,1.57,0,3.51l0,4.36c0,1.72,1.41,3.16,3.13,3.17
			c13.97,0.14,14.32,6.45,14.32,6.45V2.53C17.46,1.13,16.33,0,14.93,0L14.93,0z"/>
	</g>
	<g>
		<g>
			<path class="st0" d="M5.18,4.92c-0.41,0-0.75,0.34-0.75,0.75c0,0.41,0.34,0.75,0.75,0.75s0.75-0.34,0.75-0.75
				C5.93,5.26,5.6,4.92,5.18,4.92L5.18,4.92z"/>
		</g>
		<g>
			<path class="st0" d="M8.73,4.92c-0.41,0-0.75,0.34-0.75,0.75c0,0.41,0.34,0.75,0.75,0.75s0.75-0.34,0.75-0.75
				C9.48,5.26,9.14,4.92,8.73,4.92L8.73,4.92z"/>
		</g>
		<g>
			<path class="st0" d="M12.28,4.92c-0.41,0-0.75,0.34-0.75,0.75c0,0.41,0.34,0.75,0.75,0.75s0.75-0.34,0.75-0.75
				C13.03,5.26,12.69,4.92,12.28,4.92L12.28,4.92z"/>
		</g>
	</g>
</g>
</svg>
